{
  "title": "Prachtige navbar",
  "links": [
    {
      "name": "link1",
      "url": "#"
    },
    {
      "name": "link2",
      "url": "#"
    },
    {
      "name": "dropdown",
      "sublinks": [
        {
          "name": "sublink 1",
          "url": "#"
        },
        {
          "name": "sublink 1",
          "url": "#"
        }
      ]
    }

  ]
}